^E:\HW\HW_15\HW_15\DEBUG\HW_15.OBJ|E:\HW\HW_15\HW_15\DEBUG\PRINTNUMBERS.OBJ
/OUT:"E:\HW\HW_15\DEBUG\HW_15.EXE" /INCREMENTAL /NOLOGO KERNEL32.LIB USER32.LIB GDI32.LIB WINSPOOL.LIB COMDLG32.LIB ADVAPI32.LIB SHELL32.LIB OLE32.LIB OLEAUT32.LIB UUID.LIB ODBC32.LIB ODBCCP32.LIB /MANIFEST /MANIFESTUAC:"level='asInvoker' uiAccess='false'" /manifest:embed /DEBUG:FASTLINK /PDB:"E:\HW\HW_15\DEBUG\HW_15.PDB" /SUBSYSTEM:CONSOLE /TLBID:1 /DYNAMICBASE /NXCOMPAT /IMPLIB:"E:\HW\HW_15\DEBUG\HW_15.LIB" /MACHINE:X86 DEBUG\HW_15.OBJ
DEBUG\PRINTNUMBERS.OBJ
